fluxnet • fluxnet
…
# Invalidate and replace cached results:
list <- flux_listall(cache_age = -Inf)

The list returned by flux_listall() contains metadata on the available sites including, importantly, citations for site-level data attribution which is required by FLUXNET.

colnames(list)
#>  [1] "data_hub"               "site_id"                "site_name"             
#>  [4] "location_lat"           "location_long"          "igbp"                  
#>  [7] "network"                "team_member_name"       "team_member_role"      
#> [10] "team_member_email"      "first_year"             "last_year"             
#> [13] "download_link"          "fluxnet_product_name"   "product_citation"      
#> [16] "product_id"             "oneflux_code_version"   "product_source_network"
list[,c("site_id", "product_citation")]
#> # A tibble: 224 × 2
#>    site_id product_citation                                                     
#>    <chr>   <chr>                                                                
#>  1 AR-CCg  Gabriela Posse (2025), AmeriFlux FLUXNET-1F AR-CCg Carlos Casares gr…
#>  2 AR-TF1  Lars Kutzbach (2025), AmeriFlux FLUXNET-1F AR-TF1 Rio Moat bog, Ver.…
#>  3 AR-TF2  Lars Kutzbach (2025), AmeriFlux FLUXNET-1F AR-TF2 Rio Pipo bog, Ver.…
#>  4 BR-CST  Antonio Antonino (2025), AmeriFlux FLUXNET-1F BR-CST Caatinga Serra …
#>  5 CA-ARB  Aaron Todd, Elyn Humphreys (2025), AmeriFlux FLUXNET-1F CA-ARB Attaw…
#>  6 CA-Ca1  T. Andrew Black (2025), AmeriFlux FLUXNET-1F CA-Ca1 British Columbia…
#>  7 CA-Ca2  T. Andrew Black (2025), AmeriFlux FLUXNET-1F CA-Ca2 British Columbia…
#>  8 CA-DB2  Sara Knox (2025), AmeriFlux FLUXNET-1F CA-DB2 Delta Burns Bog 2, Ver…
#>  9 CA-DBB  Andreas Christen, Sara Knox (2025), AmeriFlux FLUXNET-1F CA-DBB Delt…
#> 10 CA-DSM  Sara Knox (2025), AmeriFlux FLUXNET-1F CA-DSM Delta Salt Marsh, Ver.…
#> # ℹ 214 more rows
…
